<?xml version="1.0" encoding="utf-8"?>
<!-- Generator: Adobe Illustrator 23.0.2, SVG Export Plug-In . SVG Version: 6.00 Build 0)  -->
<svg version="1.1" id="Layer_1" xmlns="http://www.w3.org/2000/svg" xmlns:xlink="http://www.w3.org/1999/xlink" x="0px" y="0px"
	 viewBox="0 0 62.3 45" style="enable-background:new 0 0 62.3 45;" xml:space="preserve">
<style type="text/css">
	.st0{fill:#231815;}
	.st1{fill:#FFFFFF;}
	.st2{clip-path:url(#SVGID_2_);}
	.st3{clip-path:url(#SVGID_4_);}
	.st4{clip-path:url(#SVGID_6_);}
	.st5{clip-path:url(#SVGID_8_);}
</style>
<title>01</title>
<g>
	<g id="data">
		<path class="st0" d="M12.3,36.3c-1.6-0.4-2.8-1.7-2.8-4.1V16c0-2.4,1.2-3.8,2.8-4.1V3.1C5.8,3.6,0,7.9,0,16v16.2
			C0,40.3,5.8,44.6,12.3,45V36.3z"/>
		<path class="st0" d="M14.3,3.1v8.7c1.6,0.4,2.8,1.8,2.8,4.2v16.3c0,2.4-1.2,3.7-2.8,4.1V45c6.5-0.4,12.3-4.7,12.3-12.8V16
			C26.6,7.9,20.7,3.6,14.3,3.1z"/>
		<polygon class="st1" points="12.8,14.1 12.8,14.6 13.1,14.4 13.1,14.1 		"/>
		<g>
			<defs>
				<path id="SVGID_1_" d="M12.3,36.3c-1.6-0.4-2.8-1.7-2.8-4.1V16c0-2.4,1.2-3.8,2.8-4.1V3.1C5.8,3.6,0,7.9,0,16v16.2
					C0,40.3,5.8,44.6,12.3,45V36.3z"/>
			</defs>
			<clipPath id="SVGID_2_">
				<use xlink:href="#SVGID_1_"  style="overflow:visible;"/>
			</clipPath>
			<g class="st2">
				<polygon class="st1" points="10,9.8 10,9.9 10.3,10.2 10.7,10.1 10.7,9.9 10.2,9.8 				"/>
				<path class="st1" d="M10.7,15.1l-0.2,0.1v0.2l0.2,0.1h0.2l0.1-0.1l0.5,0.6v0.8h0.2l0.5-0.1v-0.1C11.9,15.9,11.4,15.4,10.7,15.1z
					"/>
				<polygon class="st1" points="10.9,12.9 11.4,13.2 11.5,12.8 11.4,12.6 11.2,12.6 				"/>
				<polygon class="st1" points="11.2,16.9 11.2,17.2 11.5,17.2 11.9,16.9 				"/>
				<polygon class="st1" points="12.4,17.5 12.4,18.1 12.5,18.1 12.7,17.7 12.5,17.5 				"/>
				<polygon class="st1" points="12.4,7.6 12.4,8.4 13.2,8.2 				"/>
				<polygon class="st1" points="7.6,13.5 7.6,13.5 9.2,13.9 9.3,14 9.4,14 9.3,13.6 9.3,13.5 9.6,13.3 8.6,13.3 				"/>
				<polygon class="st1" points="10.5,20.8 10.5,20.8 10.5,20.9 				"/>
				<polygon class="st1" points="10.7,20.8 10.7,20.5 10.5,20.5 10.5,20.8 				"/>
				<polygon class="st1" points="10.5,20.9 10.5,21.1 10.8,21.1 10.8,21 10.8,21 				"/>
				<polygon class="st1" points="10.8,21 11.2,21 11,20.7 10.7,20.8 				"/>
				<polygon class="st1" points="10.8,21.6 11.4,21.6 11.4,21.3 11.1,21.3 				"/>
				<polygon class="st1" points="10.9,19.7 10.9,19.9 11,19.9 11.3,19.7 				"/>
				<polygon class="st1" points="11.7,20.4 11.9,20.5 12.3,20.5 12.3,20.4 				"/>
				<path class="st1" d="M12.3,19.6l-0.2,0l-0.3,0.1v0.1h0.3C12.2,19.7,12.2,19.7,12.3,19.6C12.4,19.6,12.3,19.6,12.3,19.6z"/>
				<path class="st1" d="M12.3,19.6c-0.1,0.1-0.1,0.2-0.1,0.3l0.2,0.7L12,21.2l0.1,0.1h0.1l0.5-0.6c-0.2-0.3-0.3-0.7-0.3-1.1
					C12.4,19.6,12.4,19.6,12.3,19.6L12.3,19.6L12.3,19.6z"/>
				<polygon class="st1" points="2.7,21.7 2.2,21.7 2.1,22.2 2.2,22.3 2.4,22.3 2.7,21.9 				"/>
				<path class="st1" d="M3.7,18.6H3.2L3,18.8V19l0.3,0.3c0-0.4,0.1-0.6,0.4-0.6V18.6z"/>
				<path class="st1" d="M6.1,21v-1.2c-0.2,0-0.4,0.5-0.6,1.5v0.1l0.3,0.3h0.5L6.1,21z"/>
				<path class="st1" d="M7.4,16.4l-1-0.4l-0.3,0.4l0.3,1.2h0.1c0.3-0.7,0.5-1,0.9-1V16.4z"/>
				<polygon class="st1" points="7,19 6.9,18.8 6.7,18.8 6.7,19.3 				"/>
				<path class="st1" d="M8.4,20l-0.7-0.3H7.4c0.2,0.3,0.5,0.6,0.9,0.6l0.1-0.1V20z"/>
				<path class="st1" d="M7.7,16.4v0.2C7.9,17,8,17.2,8.2,17.2v-0.3L7.7,16.4z"/>
				<polygon class="st1" points="9.2,20.4 8.7,20.4 8.4,20.7 8.4,20.8 8.9,20.8 9.2,20.6 				"/>
				<rect x="8.7" y="17.5" class="st1" width="0.3" height="0.9"/>
				<polygon class="st1" points="12.7,25 12.3,25 12.3,25.3 12.4,25.3 				"/>
				<polygon class="st1" points="-7.8,32.9 -7.8,33 -7.5,33.3 -7.1,33.2 -7.1,33 -7.7,32.9 				"/>
				<path class="st1" d="M-7.1,38.1l-0.2,0.1v0.2l0.2,0.1h0.2l0.1-0.1l0.5,0.6v0.8h0.2l0.5-0.1v-0.2C-5.9,38.9-6.5,38.4-7.1,38.1z"
					/>
				<polygon class="st1" points="-6.9,36 -6.4,36.3 -6.3,35.8 -6.4,35.7 -6.6,35.7 				"/>
				<polygon class="st1" points="-6.6,40 -6.6,40.3 -6.3,40.3 -5.9,40 				"/>
				<polygon class="st1" points="-5.5,40.6 -5.5,41.2 -5.3,41.2 -5.1,40.7 -5.3,40.6 				"/>
				<polygon class="st1" points="-5.4,30.7 -5.4,31.5 -4.7,31.3 				"/>
				<polygon class="st1" points="-5,37.2 -5,37.7 -4.7,37.4 -4.7,37.2 				"/>
				<polygon class="st1" points="-10.2,36.6 -10.2,36.6 -8.6,37 -8.5,37 -8.4,37 -8.5,36.7 -8.5,36.6 -8.3,36.3 -9.3,36.3 				"/>
				<polygon class="st1" points="-4.2,40.5 -4.2,40.6 -4.1,40.7 -3.8,40.7 -3.8,40.6 -4.1,40.5 				"/>
				<polygon class="st1" points="-3.4,39 -3.7,39.2 -3.5,39.2 -3.2,39.1 				"/>
				<polygon class="st1" points="-1.8,39.7 -1.8,40 -1.4,40 -1.1,39.7 				"/>
				<polygon class="st1" points="-1.4,36.5 -1.6,37.2 -1.3,37.2 -0.9,36.9 				"/>
				<polygon class="st1" points="-2.8,38 -2.6,38.2 -2.3,38.2 -2.3,38 				"/>
				<polygon class="st1" points="-2.2,29.3 -2.2,29.9 -1.9,29.9 -1.9,29.6 				"/>
				<polygon class="st1" points="-7.3,43.9 -7.3,43.9 -7.3,44 				"/>
				<polygon class="st1" points="-7.1,43.9 -7.2,43.6 -7.3,43.6 -7.3,43.9 				"/>
				<polygon class="st1" points="-7.3,44 -7.3,44.1 -7,44.1 -7,44.1 -7,44.1 				"/>
				<polygon class="st1" points="-7,44.1 -6.6,44.1 -6.8,43.8 -7.1,43.9 				"/>
				<path class="st1" d="M-1.8,30.5l-0.1,0.1v0.1l0.6,0.6C-1,31.1-0.6,31-0.2,31c0-0.2-0.1-0.3-0.4-0.3l-0.7,0.1L-1.8,30.5z"/>
				<polygon class="st1" points="-7,44.7 -6.4,44.7 -6.4,44.4 -6.7,44.4 				"/>
				<polygon class="st1" points="-6.9,42.8 -6.9,43 -6.8,43 -6.5,42.8 				"/>
				<polygon class="st1" points="-1.6,29 -1.6,29.3 -1,29.2 -1,29 				"/>
				<path class="st1" d="M0.3,37.7L0,37.9v0.1C0.2,38.1,0.3,38,0.3,37.7z"/>
				<polygon class="st1" points="-1.3,34.5 -1,34.8 -0.8,34.8 -0.9,34.4 				"/>
				<path class="st1" d="M0.3,38.6h0.3v-0.5C0.4,38.1,0.3,38.3,0.3,38.6z"/>
				<polygon class="st1" points="-6.2,43.5 -5.9,43.6 -5.5,43.6 -5.5,43.5 				"/>
				<path class="st1" d="M-5.5,42.7l-0.2-0.1l-0.3,0.1v0.1h0.3C-5.6,42.8-5.6,42.8-5.5,42.7L-5.5,42.7z"/>
				<path class="st1" d="M-5.5,42.7c-0.1,0-0.1,0.2-0.1,0.3l0.2,0.7l-0.4,0.5l0.1,0.1h0.1l0.5-0.6c-0.2-0.3-0.3-0.7-0.3-1.1
					C-5.4,42.6-5.5,42.7-5.5,42.7L-5.5,42.7L-5.5,42.7z"/>
				<polygon class="st1" points="0,47.4 0.5,47.1 0.5,46.9 -0.1,47 				"/>
				<polygon class="st1" points="-3.8,44.8 -4.1,45.6 -4,45.6 -3.5,45.2 -3.5,44.8 				"/>
				<path class="st1" d="M0.8,30.2v0.3h0.4C1.3,30.3,1.1,30.2,0.8,30.2z"/>
				<path class="st1" d="M1.7,30.2l-0.3-0.3H1.3C1.3,30.1,1.4,30.2,1.7,30.2z"/>
				<polygon class="st1" points="1.6,48.8 1.9,48.8 1.7,48 1.7,47.6 1.4,47.6 1.4,48.1 				"/>
				<polygon class="st1" points="-3.3,43.4 -3.3,43.3 -3.4,43.3 -3.5,43.3 				"/>
				<polygon class="st1" points="1.8,32.9 1.8,33.2 2.6,33.1 3,33.1 3,32.8 2.6,32.8 				"/>
				<path class="st1" d="M2.3,34.2v0.2l0.4,1.3h0.2c0-0.4,0.3-0.6,0.9-0.7l-0.1-0.4H2.9l-0.5-0.3H2.3z"/>
				<path class="st1" d="M2.4,46.1h0.7v-0.5H2.9C2.6,45.8,2.4,46,2.4,46.1z"/>
				<path class="st1" d="M2.4,47.4c0,0.1,0.1,0.1,0.1,0.2h0.2v-0.1C2.7,47.5,2.6,47.4,2.4,47.4z"/>
				<polygon class="st1" points="-1.5,45.6 -1.5,45.9 -1.2,46.2 -1.2,45.6 				"/>
				<polygon class="st1" points="2.9,39.7 2.9,40 3.4,39.7 3.4,39.5 3.3,39.5 				"/>
				<path class="st1" d="M2.9,48.3H3l1.3-0.4v-0.2c-0.4,0-0.6-0.3-0.8-0.8L3.1,47v0.7l-0.3,0.5L2.9,48.3z"/>
				<polygon class="st1" points="-1.4,42.6 -0.9,42.6 -0.9,42.2 				"/>
				<path class="st1" d="M3,36c0.1,0.4,0.3,0.6,0.4,0.6l0.1-0.1V36H3.3l-0.1-0.1L3,36z"/>
				<polygon class="st1" points="-3,34.7 -2.8,34.4 -2.8,34.2 -3.2,34.3 				"/>
				<polygon class="st1" points="3.3,31.3 3.6,31.9 3.7,31.9 3.7,31.3 				"/>
				<path class="st1" d="M3.3,44.2h0.1c0-0.3,0.3-0.6,1-0.9l0.1-0.2V43l-0.1-0.1H4.3c-0.5,0.2-0.9,0.6-1,1.2V44.2z"/>
				<polygon class="st1" points="3.6,36.7 3.4,37.8 3.6,38 4.1,38 4.4,36.8 4.3,36.8 				"/>
				<polygon class="st1" points="3.5,40.8 3.8,40.7 3.7,40 3.4,40.1 				"/>
				<path class="st1" d="M0.5,40.9c0,0.4-0.3,0.6-1,0.6l-0.2-0.2l-0.1,0.6h1L0.7,41v-0.1H0.5z"/>
				<path class="st1" d="M4.4,33.8v0.7h0.4v-0.1C4.7,34,4.6,33.8,4.4,33.8z"/>
				<path class="st1" d="M4.6,47.5C5,47.3,5.1,47.2,5.1,47L5,46.9H4.6v0.3l-0.1,0.1L4.6,47.5z"/>
				<polygon class="st1" points="5,43.7 5,43.5 4.7,43.5 5,43.7 				"/>
				<path class="st1" d="M4.7,45.7v0.2c0.1,0,0.3,0,0.4,0.1v-0.1C5,45.8,4.8,45.8,4.7,45.7z"/>
				<polygon class="st1" points="4.8,42.3 5,42.3 5.2,42 5.1,42 				"/>
				<path class="st1" d="M4.9,44.6l0.4-0.3l1.3,0.4v-0.1l-0.5-1.7C5.4,43.2,4.9,43.8,4.9,44.6z"/>
				<polygon class="st1" points="5.3,46.9 6.4,47 6.6,46.8 6.5,46.3 5.4,46 5.4,46.2 				"/>
				<path class="st1" d="M6.1,43.3l-0.2-0.1c-0.2,0.1-0.3,0.1-0.5,0.2h0.3h0.1C5.9,43.4,6,43.4,6.1,43.3z"/>
				<path class="st1" d="M5.9,36.4l0.3,0.4l-0.4,1.3h0.1l1.7-0.4C7.3,36.9,6.6,36.4,5.9,36.4z"/>
				<polygon class="st1" points="6.1,42.4 6.8,42.2 6.8,42.1 6.1,42.1 				"/>
				<polygon class="st1" points="6.5,40.8 6.9,40.8 6.9,40.5 6.2,40.5 				"/>
				<path class="st1" d="M6.3,34.8v0.1c0.3,0,0.5,0.3,0.9,1l0.1,0.1h0.1l0.1-0.1v-0.1c-0.2-0.5-0.6-0.9-1.1-1H6.3z"/>
				<path class="st1" d="M8.1,42L8,40.7H7.9l-0.5,0.6l0.1,0.1v0.3L7,41.9v0.3l0.1-0.1l0.2,0.1h0.3l0.1-0.1h0.1l0.1,0.1L8.1,42z"/>
				<polygon class="st1" points="8,37.7 8.2,38.4 8.3,38.4 8.3,37.7 				"/>
				<polygon class="st1" points="8.2,36.4 8.2,36.5 8.5,36.8 8.5,36.7 				"/>
				<path class="st1" d="M8.3,39.6h1.3v-0.1L9,39l-0.1,0.1H8.6l-0.1-0.6H8.2l0.1,0.1l-0.1,0.2v0.3l0.1,0.2v0.1l-0.1,0.1L8.3,39.6z"
					/>
				<polygon class="st1" points="9.6,38.1 9.6,38.5 9.9,38.5 9.9,37.8 				"/>
				<rect x="9.8" y="35.1" class="st1" width="0.7" height="0.3"/>
				<polygon class="st1" points="-5.1,48.1 -5.6,48.1 -5.6,48.3 -5.4,48.3 				"/>
				<path class="st1" d="M-3.7,48.1h-0.2c-0.3,0.2-0.6,0.3-1,0.3l0.2,0.1v0.2l-0.5,0.6h0.5l1-0.7V48.1z"/>
				<polygon class="st1" points="-2.7,47.3 -2.8,47.3 -2.8,47.5 -2.5,47.8 -2.4,47.8 -2.4,47.6 				"/>
				<polygon class="st1" points="-1.6,51.8 -1.9,51.8 -2.5,52.4 -2.5,52.5 -2.4,52.5 -2.4,52.3 -2.2,52.3 -1.6,52.7 				"/>
				<path class="st1" d="M0.4,50.4h-1.3l-0.4,0.3c0.1,0.6,0.3,0.9,0.4,0.9h0.1l-0.1-0.7l0.4-0.3h0.1l0.7,0.2V50.4z"/>
			</g>
		</g>
		<g>
			<defs>
				<path id="SVGID_3_" d="M14.3,3.1v8.7c1.6,0.4,2.8,1.8,2.8,4.2v16.3c0,2.4-1.2,3.7-2.8,4.1V45c6.5-0.4,12.3-4.7,12.3-12.8V16
					C26.6,7.9,20.7,3.6,14.3,3.1z"/>
			</defs>
			<clipPath id="SVGID_4_">
				<use xlink:href="#SVGID_3_"  style="overflow:visible;"/>
			</clipPath>
			<g class="st3">
				<rect x="27.6" y="12" class="st1" width="0.7" height="0.3"/>
				<polygon class="st1" points="13.6,17.4 13.6,17.5 13.8,17.6 14,17.6 14,17.5 13.8,17.4 				"/>
				<polygon class="st1" points="14.4,15.9 14.1,16.1 14.3,16.1 14.7,16 				"/>
				<polygon class="st1" points="16.1,16.6 16.1,16.9 16.4,16.9 16.7,16.6 				"/>
				<polygon class="st1" points="16.4,13.5 16.2,14.1 16.6,14.1 16.9,13.8 				"/>
				<polygon class="st1" points="15,14.9 15.3,15.1 15.5,15.1 15.5,14.9 				"/>
				<polygon class="st1" points="15.7,6.2 15.7,6.8 15.9,6.8 15.9,6.5 				"/>
				<path class="st1" d="M16.1,7.4l-0.1,0.1v0.1l0.6,0.6C16.9,8,17.3,7.9,17.7,8c0-0.2-0.1-0.3-0.4-0.3l-0.7,0.1L16.1,7.4z"/>
				<polygon class="st1" points="16.2,6 16.2,6.2 16.8,6.1 16.8,6 				"/>
				<path class="st1" d="M18.1,14.6l-0.3,0.3V15C18,15,18.1,14.9,18.1,14.6z"/>
				<polygon class="st1" points="16.5,11.4 16.8,11.7 17.1,11.7 16.9,11.3 				"/>
				<path class="st1" d="M18.1,15.5h0.3V15C18.2,15,18.1,15.2,18.1,15.5z"/>
				<polygon class="st1" points="17.8,24.3 18.3,24 18.3,23.9 17.8,23.9 				"/>
				<polygon class="st1" points="14,21.7 13.7,22.5 13.9,22.5 14.3,22.1 14.3,21.7 				"/>
				<path class="st1" d="M18.7,7.1v0.3h0.5C19.1,7.2,19,7.1,18.7,7.1z"/>
				<path class="st1" d="M19.5,7.1l-0.3-0.3h-0.2C19.1,7,19.3,7.1,19.5,7.1z"/>
				<polygon class="st1" points="19.4,25.7 19.7,25.7 19.6,25 19.5,24.5 19.3,24.5 19.3,25 				"/>
				<polygon class="st1" points="14.5,20.3 14.5,20.2 14.4,20.2 14.3,20.2 				"/>
				<polygon class="st1" points="19.7,9.8 19.7,10.1 20.4,10 20.8,10 20.8,9.7 20.4,9.7 				"/>
				<path class="st1" d="M20.1,11.1v0.1l0.4,1.3h0.2c0-0.4,0.3-0.6,0.9-0.7l-0.1-0.4h-0.7l-0.5-0.3L20.1,11.1z"/>
				<path class="st1" d="M20.2,23h0.7v-0.5h-0.1C20.4,22.8,20.2,22.9,20.2,23z"/>
				<path class="st1" d="M20.2,24.3c0,0.1,0.1,0.1,0.1,0.2h0.2v-0.1C20.5,24.4,20.4,24.3,20.2,24.3z"/>
				<polygon class="st1" points="16.3,22.5 16.3,22.8 16.6,23.1 16.6,22.5 				"/>
				<polygon class="st1" points="20.7,16.6 20.7,16.9 21.3,16.6 21.3,16.5 21.1,16.5 				"/>
				<path class="st1" d="M23,41.6h0.1l1.3-0.5V41c-0.4,0-0.7-0.3-0.8-0.8l-0.4,0.1V41L23,41.5L23,41.6z"/>
				<polygon class="st1" points="16.4,19.5 16.9,19.5 16.9,19.1 				"/>
				<path class="st1" d="M20.8,12.9c0.1,0.4,0.3,0.6,0.4,0.6l0.1-0.1v-0.4h-0.3L21,12.7L20.8,12.9z"/>
				<polygon class="st1" points="14.8,11.6 15.1,11.4 15.1,11.1 14.7,11.2 				"/>
				<polygon class="st1" points="21.1,8.3 21.4,8.8 21.5,8.8 21.5,8.3 				"/>
				<path class="st1" d="M21.1,21.1h0.2c0-0.3,0.3-0.6,1-0.9l0.1-0.1V20l-0.1-0.1h-0.1c-0.5,0.1-0.9,0.6-1,1.2L21.1,21.1z"/>
				<polygon class="st1" points="21.4,13.6 21.3,14.7 21.4,14.9 22,14.9 22.3,13.7 22.1,13.7 				"/>
				<polygon class="st1" points="21.3,17.7 21.6,17.7 21.6,17 21.3,17 				"/>
				<path class="st1" d="M18.4,17.8c0,0.4-0.3,0.6-1,0.6l-0.2-0.2l-0.1,0.6h1l0.5-0.9v-0.2H18.4z"/>
				<path class="st1" d="M22.3,10.7v0.7h0.4v-0.1C22.6,10.9,22.4,10.7,22.3,10.7z"/>
				<path class="st1" d="M22.4,24.4c0.4-0.1,0.5-0.3,0.5-0.4l-0.2-0.1h-0.4v0.3l-0.1,0.1L22.4,24.4z"/>
				<polygon class="st1" points="22.8,20.6 22.8,20.4 22.5,20.4 22.8,20.6 				"/>
				<path class="st1" d="M22.6,22.6v0.2c0.1,0,0.3,0,0.4,0.1v-0.1C22.8,22.7,22.7,22.7,22.6,22.6z"/>
				<polygon class="st1" points="22.7,19.2 22.8,19.2 23.1,18.9 22.9,18.9 				"/>
				<path class="st1" d="M22.7,21.6l0.4-0.3l1.3,0.4v-0.1L24,19.8C23.2,20.1,22.8,20.8,22.7,21.6z"/>
				<polygon class="st1" points="23.1,23.8 24.3,23.9 24.4,23.8 24.4,23.2 23.2,22.9 23.2,23.1 				"/>
				<path class="st1" d="M24,20.3c-0.1,0-0.1-0.1-0.2-0.1c-0.2,0.1-0.3,0.1-0.5,0.2h0.3h0.1C23.7,20.3,23.8,20.3,24,20.3z"/>
				<path class="st1" d="M24.2,8.4L24,8.3c-0.2,0.1-0.3,0.1-0.5,0.2h0.3l0.1,0.1C23.9,8.5,24,8.5,24.2,8.4z"/>
				<path class="st1" d="M23.7,13.3l0.3,0.4L23.6,15h0.1l1.7-0.4C25.1,13.8,24.5,13.3,23.7,13.3z"/>
				<polygon class="st1" points="24,19.3 24.7,19.1 24.7,19 24,19 				"/>
				<polygon class="st1" points="24.3,17.7 24.7,17.7 24.7,17.4 24,17.4 				"/>
				<path class="st1" d="M24.2,11.7v0.1c0.3,0,0.5,0.3,0.8,1l0.1,0.1h0.1l0.1-0.1v-0.1c-0.2-0.5-0.6-0.9-1.1-1H24.2z"/>
				<path class="st1" d="M25.9,18.9l-0.1-1.3l0,0l-0.5,0.6l0.1,0.1v0.3l-0.6,0.2v0.3L25,19l0.2,0.1h0.3l0.1-0.1h0.1l0.2,0.1
					C25.9,19.1,25.9,19,25.9,18.9z"/>
				<polygon class="st1" points="25.9,14.6 26,15.3 26.2,15.3 26.2,14.6 				"/>
				<polygon class="st1" points="26,13.3 26,13.4 26.3,13.7 26.3,13.6 				"/>
				<path class="st1" d="M26.2,16.6h1.3v-0.1l-0.6-0.6L26.7,16h-0.3l-0.1-0.6H26l0.2,0.1L26,15.8V16l0.2,0.1v0.1L26,16.5
					C26.1,16.5,26.1,16.5,26.2,16.6z"/>
				<polygon class="st1" points="27.5,15 27.5,15.4 27.7,15.4 27.7,14.7 				"/>
				<path class="st1" d="M14.1,25H14c-0.3,0.2-0.6,0.3-1,0.3l0.1,0.1v0.2l-0.5,0.6h0.5l1-0.7V25z"/>
				<polygon class="st1" points="15.2,24.2 15,24.2 15,24.4 15.3,24.7 15.4,24.7 15.4,24.5 				"/>
				<polygon class="st1" points="16.2,28.7 15.9,28.7 15.3,29.3 15.3,29.5 15.4,29.5 15.4,29.2 15.6,29.2 16.2,29.6 				"/>
				<path class="st1" d="M18.2,27.3h-1.3l-0.5,0.3c0.1,0.6,0.3,0.9,0.5,0.9h0.1l-0.1-0.7l0.4-0.3h0.1l0.7,0.1V27.3z"/>
			</g>
		</g>
		<polygon class="st0" points="52.8,0 52.8,10.1 52.8,41.3 62.3,41.3 62.3,0 		"/>
		<polygon class="st0" points="50.8,0 43.9,5.9 43.9,16.1 50.8,10.1 		"/>
		<g>
			<defs>
				<polygon id="SVGID_5_" points="52.8,0 52.8,10.1 52.8,41.3 62.3,41.3 62.3,0 				"/>
			</defs>
			<clipPath id="SVGID_6_">
				<use xlink:href="#SVGID_5_"  style="overflow:visible;"/>
			</clipPath>
			<g class="st4">
				<polygon class="st1" points="52.1,17.2 52.1,17.3 52.4,17.6 52.9,17.5 52.9,17.3 52.3,17.2 				"/>
				<path class="st1" d="M52.9,22.4l-0.2,0.1v0.2l0.2,0.1H53l0.1-0.1l0.5,0.6v0.8h0.2l0.5-0.1v-0.1C54,23.2,53.5,22.7,52.9,22.4z"/>
				<polygon class="st1" points="53,20.3 53.5,20.6 53.7,20.1 53.5,20 53.3,20 				"/>
				<polygon class="st1" points="53.3,24.3 53.3,24.6 53.7,24.6 54,24.3 				"/>
				<polygon class="st1" points="54.5,24.9 54.5,25.5 54.6,25.5 54.8,25 54.6,24.9 				"/>
				<polygon class="st1" points="54.6,15 54.6,15.7 55.3,15.6 				"/>
				<polygon class="st1" points="55,21.4 55,22 55.3,21.7 55.3,21.4 				"/>
				<polygon class="st1" points="49.8,20.8 49.8,20.9 51.3,21.3 51.4,21.3 51.6,21.3 51.4,21 51.4,20.8 51.7,20.6 50.7,20.6 				"/>
				<polygon class="st1" points="55.8,24.8 55.8,24.9 55.9,25 56.1,25 56.1,24.9 55.9,24.8 				"/>
				<polygon class="st1" points="56.5,23.3 56.3,23.5 56.4,23.5 56.8,23.4 				"/>
				<polygon class="st1" points="58.2,24 58.2,24.3 58.5,24.3 58.8,24 				"/>
				<polygon class="st1" points="58.5,20.8 58.4,21.4 58.7,21.4 59,21.2 				"/>
				<polygon class="st1" points="57.1,22.3 57.4,22.5 57.6,22.5 57.6,22.3 				"/>
				<polygon class="st1" points="57.8,13.6 57.8,14.2 58.1,14.2 58.1,13.9 				"/>
				<polygon class="st1" points="52.7,28.2 52.6,28.2 52.7,28.2 				"/>
				<polygon class="st1" points="52.9,28.2 52.8,27.9 52.7,27.9 52.7,28.2 				"/>
				<polygon class="st1" points="52.7,28.2 52.7,28.4 52.9,28.4 52.9,28.4 52.9,28.4 				"/>
				<polygon class="st1" points="52.9,28.4 53.3,28.3 53.2,28.1 52.9,28.2 				"/>
				<path class="st1" d="M58.2,14.8l-0.1,0.1v0.1l0.6,0.6c0.4-0.2,0.8-0.3,1.2-0.3c0-0.2-0.1-0.3-0.4-0.3l-0.7,0.1L58.2,14.8z"/>
				<polygon class="st1" points="53,29 53.5,29 53.5,28.7 53.3,28.7 				"/>
				<polygon class="st1" points="53.1,27.1 53.1,27.2 53.2,27.2 53.4,27.1 				"/>
				<polygon class="st1" points="58.3,13.3 58.3,13.6 58.9,13.5 58.9,13.3 				"/>
				<path class="st1" d="M60.2,22L60,22.2v0.2C60.1,22.4,60.2,22.2,60.2,22z"/>
				<polygon class="st1" points="58.6,18.8 58.9,19.1 59.2,19.1 59,18.7 				"/>
				<path class="st1" d="M60.3,22.8h0.3v-0.5C60.3,22.4,60.3,22.6,60.3,22.8z"/>
				<polygon class="st1" points="53.8,27.8 54,27.9 54.4,27.9 54.4,27.8 				"/>
				<path class="st1" d="M54.5,27l-0.2-0.1L54,27v0.1h0.3C54.3,27.1,54.3,27,54.5,27C54.6,27,54.5,27,54.5,27z"/>
				<path class="st1" d="M54.4,27c-0.1,0.1-0.1,0.2-0.1,0.3l0.2,0.7l-0.4,0.5l0.2,0.1h0.1l0.5-0.6c-0.2-0.3-0.4-0.7-0.3-1.1
					C54.6,26.9,54.5,26.9,54.4,27L54.4,27C54.4,27,54.4,27,54.4,27z"/>
				<polygon class="st1" points="59.9,31.7 60.5,31.4 60.5,31.2 59.9,31.3 				"/>
				<polygon class="st1" points="56.1,29 55.8,29.9 56,29.9 56.5,29.5 56.5,29 				"/>
				<path class="st1" d="M60.8,14.5v0.3h0.5C61.2,14.6,61.1,14.5,60.8,14.5z"/>
				<path class="st1" d="M61.6,14.5l-0.3-0.3h-0.1C61.2,14.4,61.4,14.5,61.6,14.5z"/>
				<polygon class="st1" points="61.6,33 61.9,33 61.7,32.3 61.6,31.9 61.4,31.9 61.4,32.4 				"/>
				<polygon class="st1" points="56.6,27.7 56.6,27.6 56.5,27.6 56.5,27.6 				"/>
				<polygon class="st1" points="61.8,17.2 61.8,17.5 62.5,17.3 63,17.3 63,17.1 62.5,17.1 				"/>
				<path class="st1" d="M62.2,18.6v0.1l0.4,1.3h0.2c0-0.4,0.3-0.6,0.8-0.7l-0.1-0.4h-0.7l-0.4-0.3H62.2z"/>
				<path class="st1" d="M62.3,30.4H63V30h-0.1C62.5,30.1,62.3,30.3,62.3,30.4z"/>
				<path class="st1" d="M62.4,31.7l0.1,0.2h0.2v-0.1C62.6,31.8,62.5,31.7,62.4,31.7z"/>
				<polygon class="st1" points="58.4,29.9 58.4,30.2 58.7,30.5 58.7,29.9 				"/>
				<polygon class="st1" points="62.8,24 62.8,24.3 63.4,24 63.4,23.8 63.2,23.8 				"/>
				<path class="st1" d="M62.8,32.6H63l1.3-0.5V32c-0.4,0-0.6-0.3-0.8-0.8L63,31.3V32l-0.3,0.5L62.8,32.6z"/>
				<polygon class="st1" points="58.5,26.9 59,26.9 59,26.5 				"/>
				<path class="st1" d="M63,20.2c0.1,0.4,0.3,0.6,0.4,0.6l0.1-0.1v-0.4h-0.3l-0.1-0.1L63,20.2z"/>
				<polygon class="st1" points="56.9,19 57.2,18.7 57.2,18.5 56.8,18.6 				"/>
				<polygon class="st1" points="63.2,15.6 63.5,16.2 63.7,16.2 63.7,15.6 				"/>
				<path class="st1" d="M63.3,28.5h0.1c0-0.3,0.3-0.6,1-0.9l0.1-0.2v-0.1l-0.1-0.1h-0.1c-0.5,0.2-0.9,0.6-1,1.2V28.5z"/>
				<polygon class="st1" points="63.5,21 63.4,22.1 63.5,22.3 64.1,22.3 64.4,21.1 64.2,21.1 				"/>
				<polygon class="st1" points="63.4,25.1 63.7,25 63.7,24.3 63.4,24.3 				"/>
				<path class="st1" d="M60.5,25.2c0,0.4-0.3,0.6-1,0.6l-0.1-0.2l-0.2,0.6h1l0.4-0.9v-0.1L60.5,25.2z"/>
				<path class="st1" d="M64.4,18.1v0.7h0.4v-0.1C64.7,18.3,64.5,18.1,64.4,18.1z"/>
				<path class="st1" d="M64.5,31.8c0.4-0.1,0.6-0.3,0.5-0.4l-0.1-0.1h-0.4v0.3l-0.1,0.1L64.5,31.8z"/>
				<polygon class="st1" points="65,28 65,27.8 64.6,27.8 64.9,28 				"/>
				<path class="st1" d="M64.7,30v0.2c0.1,0,0.3,0,0.4,0.1v-0.1C64.9,30.1,64.8,30,64.7,30z"/>
				<polygon class="st1" points="64.8,26.6 64.9,26.6 65.2,26.3 65,26.3 				"/>
				<path class="st1" d="M64.8,28.9l0.4-0.3l1.3,0.4v-0.2l-0.5-1.7C65.3,27.4,64.8,28.1,64.8,28.9z"/>
				<polygon class="st1" points="65.2,31.2 66.4,31.3 66.5,31.2 66.5,30.6 65.3,30.3 65.3,30.5 				"/>
				<path class="st1" d="M66.1,27.6l-0.2-0.1c-0.2,0.1-0.3,0.1-0.5,0.2h0.3h0.1C65.8,27.7,66,27.7,66.1,27.6z"/>
				<path class="st1" d="M65.8,20.7l0.3,0.4l-0.5,1.3h0.1l1.7-0.4C67.3,21.2,66.6,20.7,65.8,20.7z"/>
				<polygon class="st1" points="66.1,26.7 66.8,26.5 66.8,26.4 66.1,26.4 				"/>
				<polygon class="st1" points="66.4,25.1 66.9,25.1 66.9,24.8 66.1,24.8 				"/>
				<path class="st1" d="M66.3,19.1v0.1c0.3,0,0.6,0.3,0.8,1l0.1,0.1h0.1l0.1-0.1v-0.1c-0.2-0.5-0.6-0.9-1.1-1H66.3z"/>
				<path class="st1" d="M68,26.3V25h-0.1l-0.5,0.6l0.2,0.2V26L67,26.2v0.3l0.1-0.1l0.2,0.1h0.3l0.2-0.1h0.1l0.1,0.1
					C68,26.4,68,26.4,68,26.3z"/>
				<polygon class="st1" points="68,22 68.1,22.7 68.3,22.7 68.3,22 				"/>
				<polygon class="st1" points="68.1,20.7 68.1,20.8 68.4,21.1 68.4,21 				"/>
				<path class="st1" d="M68.3,23.9h1.3v-0.1L69,23.3l-0.1,0.2h-0.3l-0.1-0.6h-0.3l0.1,0.1l-0.1,0.2v0.3l0.1,0.1v0.1l-0.1,0.1
					L68.3,23.9z"/>
				<polygon class="st1" points="69.6,22.4 69.6,22.8 69.9,22.8 69.9,22.1 				"/>
				<rect x="69.7" y="19.4" class="st1" width="0.7" height="0.3"/>
				<polygon class="st1" points="44.8,29.1 44.3,29.1 44.2,29.5 44.3,29.7 44.5,29.7 44.8,29.3 				"/>
				<path class="st1" d="M45.8,25.9h-0.5l-0.3,0.3v0.1l0.3,0.3c0-0.4,0.2-0.6,0.5-0.6V25.9z"/>
				<path class="st1" d="M48.2,28.4v-1.2c-0.2,0-0.4,0.5-0.6,1.4v0.1l0.3,0.3h0.5L48.2,28.4z"/>
				<path class="st1" d="M49.5,23.8l-1-0.4l-0.3,0.4l0.3,1.2h0.1c0.3-0.7,0.5-1,0.8-1L49.5,23.8z"/>
				<polygon class="st1" points="49.1,26.4 49,26.2 48.8,26.2 48.8,26.6 				"/>
				<path class="st1" d="M50.6,27.4l-0.8-0.3h-0.3c0.2,0.3,0.5,0.6,0.9,0.6l0.1-0.1L50.6,27.4z"/>
				<path class="st1" d="M49.8,23.8v0.1c0.1,0.4,0.3,0.6,0.4,0.6v-0.3L49.8,23.8z"/>
				<polygon class="st1" points="51.3,27.8 50.9,27.8 50.6,28.1 50.6,28.2 51,28.2 51.3,28 				"/>
				<rect x="50.9" y="24.9" class="st1" width="0.3" height="0.9"/>
				<polygon class="st1" points="54.8,32.3 54.4,32.3 54.4,32.6 54.5,32.6 				"/>
				<path class="st1" d="M56.3,32.3h-0.1c-0.3,0.2-0.6,0.3-1,0.3l0.1,0.2v0.1l-0.4,0.6h0.4l1-0.7V32.3z"/>
				<polygon class="st1" points="57.3,31.6 57.1,31.6 57.1,31.8 57.4,32.1 57.6,32.1 57.6,31.9 				"/>
				<polygon class="st1" points="58.3,36.1 58,36.1 57.4,36.7 57.4,36.8 57.6,36.8 57.6,36.5 57.7,36.5 58.3,37 				"/>
				<path class="st1" d="M60.3,34.7H59L58.6,35c0.1,0.6,0.3,0.9,0.5,0.9h0.1L59,35.1l0.4-0.3h0.1l0.7,0.2L60.3,34.7z"/>
				<polygon class="st1" points="64.3,29.9 64.3,30 64.6,30.4 65.1,30.2 65.1,30 64.5,29.9 				"/>
				<path class="st1" d="M65.1,35.2l-0.2,0.1v0.2l0.2,0.1h0.2l0.1-0.1l0.5,0.6v0.8h0.2l0.5-0.1v-0.1C66.2,36,65.7,35.5,65.1,35.2z"
					/>
				<polygon class="st1" points="65.3,33 65.7,33.3 65.9,32.9 65.7,32.7 65.6,32.7 				"/>
				<polygon class="st1" points="65.6,37 65.6,37.4 65.9,37.4 66.2,37 				"/>
				<polygon class="st1" points="66.7,37.6 66.7,38.2 66.9,38.2 67,37.8 66.9,37.6 				"/>
				<polygon class="st1" points="66.8,27.8 66.8,28.5 67.5,28.3 				"/>
				<polygon class="st1" points="67.2,34.2 67.2,34.8 67.5,34.5 67.5,34.2 				"/>
				<polygon class="st1" points="62,33.6 62,33.7 63.5,34 63.7,34.1 63.8,34.1 63.7,33.7 63.7,33.6 63.9,33.4 62.9,33.4 				"/>
				<polygon class="st1" points="68,37.5 68,37.7 68.1,37.7 68.4,37.7 68.4,37.7 68.1,37.5 				"/>
				<polygon class="st1" points="68.7,36 68.5,36.3 68.6,36.3 69,36.2 				"/>
				<polygon class="st1" points="70.4,36.8 70.4,37 70.8,37 71.1,36.8 				"/>
				<polygon class="st1" points="70.8,33.6 70.6,34.2 70.9,34.2 71.2,33.9 				"/>
				<polygon class="st1" points="69.4,35.1 69.6,35.2 69.9,35.2 69.9,35.1 				"/>
				<polygon class="st1" points="70,26.4 70,26.9 70.3,26.9 70.3,26.7 				"/>
				<polygon class="st1" points="64.9,41 64.8,41 64.9,41 				"/>
				<polygon class="st1" points="65.1,40.9 65,40.6 64.9,40.6 64.9,41 				"/>
				<polygon class="st1" points="64.9,41 64.9,41.2 65.2,41.2 65.2,41.2 65.1,41.2 				"/>
				<polygon class="st1" points="65.2,41.2 65.5,41.1 65.4,40.8 65.1,40.9 				"/>
				<path class="st1" d="M70.4,27.6l-0.1,0.1v0.2l0.6,0.6c0.4-0.2,0.8-0.3,1.2-0.3c0-0.2-0.1-0.3-0.4-0.3L70.8,28L70.4,27.6z"/>
				<polygon class="st1" points="65.2,41.8 65.8,41.7 65.8,41.4 65.5,41.5 				"/>
				<polygon class="st1" points="65.3,39.8 65.3,40 65.4,40 65.6,39.8 				"/>
				<polygon class="st1" points="70.6,26.1 70.6,26.4 71.1,26.2 71.1,26.1 				"/>
				<path class="st1" d="M72.5,34.7L72.2,35v0.1C72.4,35.1,72.5,35,72.5,34.7z"/>
				<polygon class="st1" points="70.8,31.5 71.1,31.8 71.4,31.8 71.3,31.4 				"/>
				<path class="st1" d="M72.5,35.6h0.3v-0.5C72.6,35.1,72.5,35.3,72.5,35.6z"/>
				<polygon class="st1" points="66,40.6 66.3,40.7 66.7,40.7 66.7,40.6 				"/>
				<path class="st1" d="M66.7,39.7l-0.2-0.1l-0.3,0.1v0.1h0.3C66.5,39.8,66.5,39.8,66.7,39.7C66.8,39.7,66.7,39.7,66.7,39.7z"/>
				<path class="st1" d="M66.7,39.8c-0.1,0.1-0.1,0.2-0.1,0.3l0.2,0.7l-0.4,0.5l0.1,0.1h0.1l0.5-0.6c-0.2-0.3-0.4-0.7-0.4-1.1
					C66.8,39.7,66.7,39.7,66.7,39.8L66.7,39.8L66.7,39.8z"/>
				<polygon class="st1" points="72.1,44.4 72.7,44.1 72.7,44 72.1,44 				"/>
				<polygon class="st1" points="68.4,41.8 68,42.7 68.2,42.7 68.7,42.2 68.7,41.8 				"/>
				<path class="st1" d="M73,27.2v0.4h0.4C73.4,27.3,73.3,27.2,73,27.2z"/>
				<path class="st1" d="M73.9,27.2l-0.3-0.3h-0.1C73.4,27.1,73.6,27.2,73.9,27.2z"/>
				<polygon class="st1" points="73.8,45.8 74.1,45.8 73.9,45.1 73.9,44.6 73.6,44.7 73.6,45.1 				"/>
				<polygon class="st1" points="68.9,40.4 68.9,40.3 68.7,40.3 68.7,40.4 				"/>
				<polygon class="st1" points="74,30 74,30.2 74.7,30.1 75.2,30.1 75.2,29.8 74.7,29.8 				"/>
				<path class="st1" d="M74.4,31.3v0.1l0.4,1.3H75c0-0.4,0.3-0.7,0.8-0.7l-0.1-0.4H75l-0.5-0.3L74.4,31.3z"/>
				<path class="st1" d="M74.6,43.2h0.7v-0.4h-0.1C74.7,42.9,74.6,43,74.6,43.2z"/>
				<path class="st1" d="M74.6,44.4c0,0.1,0.1,0.1,0.1,0.2h0.2v0C74.9,44.6,74.8,44.5,74.6,44.4z"/>
				<polygon class="st1" points="70.6,42.7 70.6,43 70.9,43.2 70.9,42.7 				"/>
				<polygon class="st1" points="75,36.7 75,37 75.6,36.7 75.6,36.6 75.5,36.6 				"/>
				<path class="st1" d="M75.1,45.3h0.1l1.3-0.5v-0.2c-0.4,0-0.7-0.3-0.8-0.8L75.3,44v0.7L75,45.2L75.1,45.3z"/>
				<polygon class="st1" points="70.8,39.6 71.3,39.6 71.3,39.2 				"/>
				<path class="st1" d="M75.2,33c0.1,0.4,0.3,0.6,0.4,0.6l0.2-0.1V33h-0.3l-0.1-0.1L75.2,33z"/>
				<polygon class="st1" points="69.2,31.8 69.4,31.5 69.4,31.2 69,31.3 				"/>
				<polygon class="st1" points="75.5,28.4 75.8,28.9 75.9,28.9 75.9,28.4 				"/>
				<path class="st1" d="M75.5,41.3h0.1c0-0.3,0.3-0.6,1-0.9l0.1-0.1v-0.1l-0.1-0.1h-0.2c-0.5,0.2-0.9,0.6-1,1.2L75.5,41.3z"/>
				<polygon class="st1" points="75.8,33.7 75.6,34.9 75.8,35 76.3,35 76.6,33.8 76.4,33.8 				"/>
				<polygon class="st1" points="75.6,37.8 75.9,37.8 75.9,37.1 75.6,37.1 				"/>
				<path class="st1" d="M72.7,37.9c0,0.4-0.3,0.6-1,0.6l-0.2-0.2l-0.1,0.6h1l0.5-0.9v-0.2H72.7z"/>
				<path class="st1" d="M76.6,30.8v0.7H77v-0.1C76.9,31,76.8,30.8,76.6,30.8z"/>
				<path class="st1" d="M76.8,44.5c0.4-0.1,0.6-0.3,0.5-0.4L77.2,44h-0.4v0.3l-0.2,0.1L76.8,44.5z"/>
				<polygon class="st1" points="77.2,40.7 77.2,40.5 76.9,40.5 77.1,40.7 				"/>
				<path class="st1" d="M76.9,42.7v0.2c0.1,0,0.3,0,0.4,0.1v-0.1C77.2,42.9,77,42.8,76.9,42.7z"/>
				<polygon class="st1" points="77,39.3 77.1,39.3 77.4,39 77.3,39 				"/>
				<path class="st1" d="M77.1,41.7l0.4-0.3l1.3,0.4v-0.1l-0.5-1.7C77.6,40.2,77.1,40.9,77.1,41.7z"/>
				<polygon class="st1" points="77.4,43.9 78.6,44 78.8,43.9 78.7,43.3 77.6,43 77.6,43.2 				"/>
				<path class="st1" d="M78.3,40.4c-0.1,0-0.1-0.1-0.2-0.1c-0.2,0.1-0.3,0.1-0.5,0.2h0.3l0,0C78,40.5,78.2,40.4,78.3,40.4z"/>
				<path class="st1" d="M78,33.4l0.3,0.4l-0.4,1.3H78l1.8-0.4C79.5,34,78.8,33.5,78,33.4z"/>
				<polygon class="st1" points="78.3,39.4 79,39.3 79,39.1 78.3,39.1 				"/>
				<polygon class="st1" points="78.7,37.8 79.1,37.8 79.1,37.5 78.4,37.5 				"/>
				<path class="st1" d="M78.5,31.8V32c0.3,0,0.6,0.3,0.8,1l0.1,0.1h0.2l0.1-0.1v-0.1c-0.2-0.5-0.6-0.9-1.1-1H78.5z"/>
				<path class="st1" d="M80.3,39l-0.1-1.3h-0.1l-0.5,0.6l0.1,0.1v0.3L79.1,39v0.3l0.2-0.1l0.2,0.1h0.3l0.1-0.1H80l0.1,0.1L80.3,39z
					"/>
				<polygon class="st1" points="80.2,34.7 80.4,35.4 80.5,35.4 80.5,34.7 				"/>
				<polygon class="st1" points="80.4,33.4 80.4,33.5 80.6,33.8 80.6,33.7 				"/>
				<path class="st1" d="M80.5,36.7h1.3v-0.1L81.2,36l-0.1,0.1h-0.3l-0.2-0.6h-0.3l0.1,0.1l-0.1,0.2v0.3l0.1,0.1v0.1l-0.1,0.1
					L80.5,36.7z"/>
				<polygon class="st1" points="81.8,35.1 81.8,35.6 82.1,35.6 82.1,34.9 				"/>
				<rect x="81.9" y="32.1" class="st1" width="0.7" height="0.3"/>
				<polygon class="st1" points="57,41.8 56.6,41.8 56.4,42.3 56.6,42.5 56.7,42.5 57,42 				"/>
				<path class="st1" d="M58,38.7h-0.4L57.3,39v0.1l0.3,0.3c0-0.4,0.2-0.6,0.4-0.6V38.7z"/>
				<path class="st1" d="M60.5,41.1V40c-0.2,0-0.4,0.5-0.6,1.5v0.1l0.3,0.3h0.4L60.5,41.1z"/>
				<path class="st1" d="M61.8,36.5l-1-0.4l-0.3,0.4l0.3,1.2H61c0.2-0.7,0.5-1,0.8-1L61.8,36.5z"/>
				<polygon class="st1" points="61.3,39.1 61.2,39 61.1,39 61.1,39.4 				"/>
				<path class="st1" d="M62.8,40.1l-0.7-0.3h-0.3c0.2,0.3,0.5,0.6,0.9,0.6l0.1-0.2L62.8,40.1z"/>
				<path class="st1" d="M62.1,36.5v0.1c0.1,0.4,0.3,0.6,0.4,0.6v-0.3L62.1,36.5z"/>
				<polygon class="st1" points="63.5,40.5 63.1,40.5 62.8,40.8 62.8,41 63.2,41 63.5,40.7 				"/>
				<rect x="63.1" y="37.7" class="st1" width="0.3" height="0.9"/>
				<polygon class="st1" points="67,45.1 66.6,45.1 66.6,45.4 66.8,45.4 				"/>
				<path class="st1" d="M68.5,45.1h-0.1c-0.3,0.2-0.6,0.3-1,0.3l0.2,0.1v0.1L67,46.3h0.5l1-0.7L68.5,45.1z"/>
				<polygon class="st1" points="69.5,44.4 69.4,44.4 69.4,44.5 69.6,44.8 69.8,44.8 69.8,44.7 				"/>
				<polygon class="st1" points="70.5,48.9 70.2,48.9 69.6,49.4 69.6,49.6 69.8,49.6 69.8,49.3 70,49.3 70.5,49.7 				"/>
				<path class="st1" d="M72.6,47.4h-1.3l-0.4,0.3c0.1,0.6,0.3,0.9,0.4,0.9h0.1l-0.1-0.7l0.4-0.3h0.1l0.7,0.1L72.6,47.4z"/>
				<polygon class="st1" points="58.1,-12.6 58.1,-12.5 58.5,-12.1 58.9,-12.3 58.9,-12.5 58.3,-12.6 				"/>
				<path class="st1" d="M58.9-7.3l-0.2,0.1V-7l0.2,0.1H59L59.2-7l0.5,0.6v0.9h0.2l0.5-0.1v-0.1C60-6.5,59.5-7,58.9-7.3z"/>
				<polygon class="st1" points="59,-9.5 59.5,-9.2 59.7,-9.6 59.5,-9.8 59.4,-9.8 				"/>
				<polygon class="st1" points="59.4,-5.5 59.4,-5.2 59.7,-5.2 60,-5.5 				"/>
				<polygon class="st1" points="60.5,-4.9 60.5,-4.3 60.7,-4.3 60.8,-4.7 60.7,-4.9 				"/>
				<polygon class="st1" points="56.4,-14.8 56.4,-14 57.1,-14.2 				"/>
				<polygon class="st1" points="61,-8.3 61,-7.8 61.3,-8 61.3,-8.3 				"/>
				<polygon class="st1" points="55.8,-8.9 55.8,-8.9 57.4,-8.5 57.5,-8.4 57.6,-8.4 57.5,-8.8 57.5,-8.9 57.7,-9.1 56.7,-9.1 				
					"/>
				<polygon class="st1" points="61.8,-5 61.8,-4.9 61.9,-4.8 62.2,-4.8 62.2,-4.9 61.9,-5 				"/>
				<polygon class="st1" points="62.5,-6.5 62.3,-6.3 62.4,-6.3 62.8,-6.3 				"/>
				<polygon class="st1" points="64.2,-5.8 64.2,-5.5 64.5,-5.5 64.9,-5.8 				"/>
				<polygon class="st1" points="64.5,-8.9 64.4,-8.3 64.7,-8.3 65,-8.6 				"/>
				<polygon class="st1" points="63.2,-7.4 63.4,-7.3 63.7,-7.3 63.7,-7.4 				"/>
				<polygon class="st1" points="59.5,-16.1 59.5,-15.6 59.8,-15.6 59.8,-15.9 				"/>
				<polygon class="st1" points="58.7,-1.6 58.6,-1.6 58.7,-1.5 				"/>
				<polygon class="st1" points="58.9,-1.6 58.8,-1.9 58.7,-1.9 58.7,-1.6 				"/>
				<polygon class="st1" points="58.7,-1.5 58.7,-1.3 59,-1.3 59,-1.4 58.9,-1.4 				"/>
				<polygon class="st1" points="59,-1.4 59.3,-1.4 59.2,-1.7 58.9,-1.6 				"/>
				<path class="st1" d="M60-15l-0.2,0.1v0.1l0.6,0.6c0.4-0.2,0.8-0.3,1.2-0.3c0-0.2-0.1-0.3-0.4-0.3l-0.7,0.1L60-15z"/>
				<polygon class="st1" points="59,-0.8 59.6,-0.8 59.6,-1.1 59.3,-1.1 				"/>
				<polygon class="st1" points="59.1,-2.7 59.1,-2.5 59.2,-2.5 59.4,-2.7 				"/>
				<polygon class="st1" points="60.1,-16.4 60.1,-16.1 60.7,-16.3 60.7,-16.4 				"/>
				<path class="st1" d="M66.3-7.8L66-7.5v0.1C66.2-7.4,66.3-7.5,66.3-7.8z"/>
				<polygon class="st1" points="64.6,-11 64.9,-10.7 65.2,-10.7 65.1,-11.1 				"/>
				<path class="st1" d="M66.3-6.9h0.3v-0.5C66.4-7.4,66.3-7.2,66.3-6.9z"/>
				<polygon class="st1" points="59.8,-2 60.1,-1.8 60.5,-1.8 60.5,-2 				"/>
				<path class="st1" d="M60.5-2.8l-0.2-0.1l-0.3,0.1v0.1h0.3C60.4-2.7,60.4-2.7,60.5-2.8L60.5-2.8z"/>
				<path class="st1" d="M60.5-2.7c-0.1,0.1-0.1,0.2-0.1,0.3l0.2,0.7l-0.4,0.5l0.1,0.1h0.2L61-1.7c-0.2-0.3-0.3-0.7-0.3-1.1
					C60.6-2.8,60.5-2.8,60.5-2.7L60.5-2.7L60.5-2.7z"/>
				<polygon class="st1" points="65.9,1.9 66.5,1.6 66.5,1.5 65.9,1.5 				"/>
				<polygon class="st1" points="62.2,-0.7 61.9,0.1 62,0.1 62.5,-0.3 62.5,-0.7 				"/>
				<path class="st1" d="M62.5-15.3v0.3H63C63-15.2,62.8-15.3,62.5-15.3z"/>
				<path class="st1" d="M63.4-15.3l-0.3-0.3H63C63-15.4,63.1-15.3,63.4-15.3z"/>
				<polygon class="st1" points="67.6,3.3 67.9,3.3 67.7,2.6 67.7,2.1 67.4,2.1 67.4,2.6 				"/>
				<polygon class="st1" points="62.7,-2.1 62.7,-2.2 62.5,-2.2 62.5,-2.2 				"/>
				<polygon class="st1" points="67.8,-12.6 67.8,-12.3 68.5,-12.4 69,-12.4 69,-12.7 68.5,-12.7 				"/>
				<path class="st1" d="M68.3-11.3v0.1l0.4,1.3h0.1c0-0.4,0.3-0.6,0.8-0.7L69.5-11h-0.7l-0.4-0.3L68.3-11.3z"/>
				<path class="st1" d="M68.4,0.6h0.7V0.2h-0.1C68.5,0.4,68.4,0.6,68.4,0.6z"/>
				<path class="st1" d="M68.4,1.9c0,0.1,0.1,0.1,0.1,0.2h0.2V2C68.7,2,68.6,1.9,68.4,1.9z"/>
				<polygon class="st1" points="64.4,0.1 64.4,0.4 64.7,0.7 64.7,0.1 				"/>
				<polygon class="st1" points="68.8,-5.8 68.8,-5.5 69.4,-5.8 69.4,-5.9 69.3,-5.9 				"/>
				<path class="st1" d="M68.9,2.8H69l1.3-0.5V2.2c-0.4,0-0.7-0.3-0.8-0.8l-0.4,0.1v0.7l-0.3,0.5L68.9,2.8z"/>
				<polygon class="st1" points="64.6,-2.9 65,-2.9 65,-3.3 				"/>
				<path class="st1" d="M69-9.5C69.1-9.1,69.3-9,69.4-9l0.1-0.1v-0.4h-0.3l-0.2-0.1L69-9.5z"/>
				<polygon class="st1" points="63,-10.8 63.2,-11 63.2,-11.3 62.8,-11.2 				"/>
				<polygon class="st1" points="65,-14.1 65.3,-13.6 65.4,-13.6 65.4,-14.1 				"/>
				<path class="st1" d="M69.3-1.3h0.2c0-0.3,0.3-0.6,1-0.9l0.1-0.1v-0.1l-0.1-0.1h-0.1c-0.5,0.1-0.9,0.6-1,1.2L69.3-1.3z"/>
				<polygon class="st1" points="69.5,-8.8 69.4,-7.7 69.5,-7.5 70.1,-7.5 70.4,-8.7 70.3,-8.7 				"/>
				<polygon class="st1" points="69.4,-4.7 69.8,-4.7 69.7,-5.4 69.4,-5.4 				"/>
				<path class="st1" d="M66.5-4.6c0,0.4-0.3,0.6-1,0.6l-0.2-0.2l-0.1,0.6h1l0.4-0.9v-0.1H66.5z"/>
				<path class="st1" d="M70.4-11.7v0.7h0.4v-0.2C70.7-11.4,70.6-11.7,70.4-11.7z"/>
				<path class="st1" d="M70.6,2c0.4-0.1,0.6-0.3,0.5-0.4L71,1.4h-0.4v0.3l-0.1,0.1L70.6,2z"/>
				<polygon class="st1" points="71,-1.8 71,-2 70.7,-2 70.9,-1.8 				"/>
				<path class="st1" d="M70.7,0.2v0.2c0.1,0,0.3,0,0.4,0.1V0.4C71,0.4,70.8,0.3,70.7,0.2z"/>
				<polygon class="st1" points="70.8,-3.2 70.9,-3.2 71.2,-3.5 71.1,-3.5 				"/>
				<path class="st1" d="M70.9-0.9l0.4-0.3l1.3,0.4v-0.1l-0.5-1.7C71.4-2.3,70.9-1.6,70.9-0.9z"/>
				<polygon class="st1" points="71.3,1.4 72.4,1.5 72.5,1.4 72.5,0.8 71.4,0.5 71.4,0.7 				"/>
				<path class="st1" d="M72.1-2.1c-0.1,0-0.1-0.1-0.2-0.1c-0.2,0.1-0.3,0.1-0.5,0.2h0.3h0.1C71.9-2.1,72-2.1,72.1-2.1z"/>
				<path class="st1" d="M71.8-9.1l0.3,0.4l-0.4,1.3h0.1l1.7-0.4C73.3-8.5,72.6-9,71.8-9.1z"/>
				<polygon class="st1" points="72.1,-3.1 72.8,-3.3 72.8,-3.4 72.1,-3.4 				"/>
				<polygon class="st1" points="72.5,-4.7 72.9,-4.7 72.9,-5 72.2,-5 				"/>
				<path class="st1" d="M72.3-10.7v0.1c0.3,0,0.5,0.3,0.8,1l0.1,0.1h0.1l0.1-0.1v-0.1c-0.2-0.5-0.6-0.9-1.1-1L72.3-10.7z"/>
				<path class="st1" d="M74-3.4L74-4.7h-0.1l-0.5,0.6L73.5-4v0.3l-0.6,0.2v0.3l0.1-0.1l0.2,0.1h0.3l0.1-0.1h0.1L74-3.2
					C74-3.3,74-3.4,74-3.4z"/>
				<polygon class="st1" points="74,-7.8 74.2,-7.1 74.3,-7.1 74.3,-7.8 				"/>
				<polygon class="st1" points="74.2,-9.1 74.2,-9 74.4,-8.7 74.4,-8.8 				"/>
				<path class="st1" d="M74.3-5.8h1.3v-0.1L75-6.5l-0.1,0.1h-0.3l-0.1-0.6h-0.3l0.2,0.1l-0.2,0.2v0.3l0.2,0.1v0.1l-0.2,0.1
					L74.3-5.8z"/>
				<polygon class="st1" points="75.6,-7.4 75.6,-6.9 75.9,-6.9 75.9,-7.7 				"/>
				<rect x="75.8" y="-10.4" class="st1" width="0.7" height="0.3"/>
				<polygon class="st1" points="50.8,-0.7 50.4,-0.7 50.2,-0.2 50.4,-0.1 50.5,-0.1 50.8,-0.5 				"/>
				<path class="st1" d="M51.8-3.8h-0.5l-0.3,0.3v0.1l0.3,0.3c0-0.4,0.2-0.6,0.5-0.6V-3.8z"/>
				<path class="st1" d="M54.3-1.4v-1.2c-0.2,0-0.4,0.5-0.6,1.4v0.1L54-0.7h0.5L54.3-1.4z"/>
				<path class="st1" d="M55.6-6l-1-0.4L54.3-6l0.3,1.2h0.1c0.3-0.7,0.5-1,0.8-1L55.6-6z"/>
				<polygon class="st1" points="55.1,-3.4 55,-3.6 54.9,-3.6 54.9,-3.1 				"/>
				<path class="st1" d="M56.6-2.4l-0.7-0.3h-0.3c0.2,0.3,0.5,0.6,0.9,0.6l0.1-0.1V-2.4z"/>
				<path class="st1" d="M55.9-6v0.1c0.1,0.4,0.3,0.6,0.4,0.6v-0.3L55.9-6z"/>
				<polygon class="st1" points="57.3,-2 56.9,-2 56.6,-1.7 56.6,-1.5 57,-1.5 57.3,-1.8 				"/>
				<rect x="56.9" y="-4.9" class="st1" width="0.3" height="0.9"/>
				<polygon class="st1" points="60.8,2.6 60.4,2.6 60.4,2.9 60.6,2.9 				"/>
				<path class="st1" d="M62.3,2.6h-0.1c-0.3,0.2-0.6,0.3-1,0.3L61.3,3v0.1l-0.4,0.6h0.4l1-0.7V2.6z"/>
				<polygon class="st1" points="63.3,1.9 63.2,1.9 63.2,2 63.5,2.3 63.6,2.3 63.6,2.2 				"/>
				<polygon class="st1" points="64.3,6.4 64,6.4 63.5,6.9 63.5,7.1 63.6,7.1 63.6,6.8 63.8,6.8 64.3,7.2 				"/>
				<path class="st1" d="M66.4,4.9h-1.3l-0.4,0.3c0.1,0.6,0.3,0.9,0.4,0.9h0.2l-0.2-0.7L65.5,5h0.1l0.7,0.1V4.9z"/>
			</g>
		</g>
		<g>
			<defs>
				<polygon id="SVGID_7_" points="50.8,0 43.9,5.9 43.9,16.1 50.8,10.1 				"/>
			</defs>
			<clipPath id="SVGID_8_">
				<use xlink:href="#SVGID_7_"  style="overflow:visible;"/>
			</clipPath>
			<g class="st5">
				<polygon class="st1" points="25.7,6.9 25.7,7 26,7.3 26.4,7.1 26.4,7 25.9,6.9 				"/>
				<path class="st1" d="M26.4,11.6l-0.2,0.1v0.1l0.2,0.1h0.2l0.1-0.1l0.4,0.5v0.8h0.2l0.4-0.1v-0.1C27.5,12.4,27,11.9,26.4,11.6z"
					/>
				<polygon class="st1" points="26.6,9.7 27,9.9 27.1,9.5 27,9.4 26.8,9.4 				"/>
				<polygon class="st1" points="26.8,13.3 26.8,13.6 27.1,13.6 27.5,13.3 				"/>
				<polygon class="st1" points="27.9,13.9 27.9,14.4 28,14.4 28.2,14 28,13.9 				"/>
				<polygon class="st1" points="28,4.9 28,5.6 28.6,5.4 				"/>
				<polygon class="st1" points="28.3,10.7 28.3,11.2 28.6,11 28.6,10.7 				"/>
				<polygon class="st1" points="23.6,10.2 23.6,10.3 25,10.6 25.1,10.6 25.2,10.6 25.1,10.3 25.1,10.2 25.4,10 24.4,10 				"/>
				<polygon class="st1" points="29,13.7 29,13.9 29.2,13.9 29.4,13.9 29.4,13.9 29.2,13.7 				"/>
				<polygon class="st1" points="29.7,12.4 29.5,12.6 29.6,12.6 30,12.5 				"/>
				<polygon class="st1" points="31.3,13.1 31.3,13.3 31.5,13.3 31.8,13.1 				"/>
				<polygon class="st1" points="31.5,10.2 31.4,10.7 31.7,10.7 32,10.5 				"/>
				<polygon class="st1" points="30.3,11.5 30.5,11.7 30.8,11.7 30.8,11.5 				"/>
				<polygon class="st1" points="30.9,3.6 30.9,4.1 31.1,4.1 31.1,3.9 				"/>
				<polygon class="st1" points="26.2,16.9 26.2,16.9 26.2,16.9 				"/>
				<polygon class="st1" points="26.4,16.8 26.4,16.6 26.2,16.6 26.2,16.9 				"/>
				<polygon class="st1" points="26.2,16.9 26.2,17.1 26.5,17.1 26.5,17 26.5,17 				"/>
				<polygon class="st1" points="26.5,17 26.8,17 26.7,16.7 26.4,16.8 				"/>
				<path class="st1" d="M31.3,4.7l-0.1,0.1v0.1l0.5,0.5c0.3-0.2,0.6-0.3,1-0.3c0-0.2-0.1-0.3-0.4-0.3l-0.7,0.1L31.3,4.7z"/>
				<polygon class="st1" points="26.5,17.6 27,17.6 27,17.3 26.8,17.3 				"/>
				<polygon class="st1" points="26.6,15.9 26.6,16 26.7,16 26.9,15.9 				"/>
				<polygon class="st1" points="31.4,3.4 31.4,3.6 31.9,3.5 31.9,3.4 				"/>
				<path class="st1" d="M33.1,11.2l-0.3,0.3v0.1C33,11.6,33.1,11.5,33.1,11.2z"/>
				<polygon class="st1" points="31.6,8.3 31.9,8.6 32.2,8.6 32,8.2 				"/>
				<path class="st1" d="M33.1,12h0.3v-0.4C33.2,11.6,33.1,11.7,33.1,12z"/>
				<polygon class="st1" points="27.3,16.5 27.5,16.6 27.8,16.6 27.8,16.5 				"/>
				<path class="st1" d="M27.9,15.8c0,0-0.1,0-0.2,0l-0.2,0.1v0.1h0.3C27.7,15.9,27.7,15.9,27.9,15.8C28,15.8,27.8,15.8,27.9,15.8z"
					/>
				<path class="st1" d="M27.8,15.8c-0.1,0-0.1,0.2-0.1,0.3l0.2,0.7l-0.4,0.4l0.1,0.1h0.2l0.5-0.5c-0.2-0.3-0.3-0.6-0.3-1
					C27.9,15.7,27.9,15.7,27.8,15.8L27.8,15.8C27.8,15.7,27.8,15.8,27.8,15.8z"/>
				<polygon class="st1" points="32.8,20 33.3,19.7 33.3,19.6 32.8,19.6 				"/>
				<polygon class="st1" points="29.4,17.6 29.1,18.4 29.2,18.4 29.7,18 29.7,17.6 				"/>
				<path class="st1" d="M33.6,4.4v0.3H34C34,4.5,33.9,4.4,33.6,4.4z"/>
				<path class="st1" d="M34.4,4.4l-0.3-0.3H34C34,4.3,34.1,4.4,34.4,4.4z"/>
				<polygon class="st1" points="34.3,21.3 34.6,21.3 34.4,20.6 34.4,20.2 34.1,20.2 34.2,20.6 				"/>
				<polygon class="st1" points="29.8,16.4 29.8,16.3 29.7,16.3 29.7,16.3 				"/>
				<polygon class="st1" points="34.5,6.9 34.5,7.2 35.2,7 35.6,7 35.6,6.8 35.2,6.8 				"/>
				<path class="st1" d="M34.9,8.1v0.1l0.4,1.2h0.2c0-0.4,0.3-0.6,0.8-0.7l-0.1-0.4h-0.6L35,8.1H34.9z"/>
				<path class="st1" d="M35,18.9h0.6v-0.4h-0.1C35.2,18.6,35,18.7,35,18.9z"/>
				<path class="st1" d="M35,20c0,0.1,0.1,0.1,0.1,0.2h0.2v-0.1C35.3,20.1,35.2,20,35,20z"/>
				<polygon class="st1" points="31.4,18.4 31.4,18.7 31.7,18.9 31.7,18.4 				"/>
				<polygon class="st1" points="35.4,13 35.4,13.3 35.9,13 35.9,12.9 35.8,12.9 				"/>
				<path class="st1" d="M41.1,20.8h0.1l1.2-0.4v-0.2c-0.4,0-0.6-0.3-0.7-0.8l-0.4,0.1v0.6l-0.2,0.4L41.1,20.8z"/>
				<polygon class="st1" points="31.6,15.7 32,15.7 32,15.3 				"/>
				<path class="st1" d="M35.6,9.6c0.1,0.3,0.3,0.5,0.4,0.5l0.1-0.1V9.7h-0.3l-0.1-0.1L35.6,9.6z"/>
				<polygon class="st1" points="30.1,8.5 30.3,8.3 30.3,8 30,8.1 				"/>
				<polygon class="st1" points="35.8,5.5 36.1,6 36.2,6 36.2,5.5 				"/>
				<path class="st1" d="M41.5,17.1h0.1c0-0.2,0.3-0.5,0.9-0.8l0.1-0.1v-0.1l-0.1-0.1h-0.1c-0.5,0.1-0.8,0.5-0.9,1L41.5,17.1z"/>
				<polygon class="st1" points="41.7,10.3 41.6,11.3 41.7,11.5 42.3,11.5 42.5,10.4 42.4,10.4 				"/>
				<polygon class="st1" points="36,14 36.3,14 36.2,13.3 35.9,13.4 				"/>
				<path class="st1" d="M33.3,14.1c0,0.4-0.3,0.5-0.9,0.5l-0.2-0.1L32.2,15H33l0.4-0.8v-0.1L33.3,14.1z"/>
				<path class="st1" d="M42.5,7.7v0.6h0.4V8.2C42.8,7.9,42.7,7.7,42.5,7.7z"/>
				<path class="st1" d="M42.7,20.1c0.3-0.1,0.5-0.3,0.5-0.4L43,19.6h-0.4v0.3L42.5,20L42.7,20.1z"/>
				<polygon class="st1" points="43.1,16.6 43.1,16.5 42.8,16.5 43,16.6 				"/>
				<path class="st1" d="M42.8,18.5v0.2c0.1,0,0.2,0,0.3,0v-0.1C43,18.6,42.9,18.5,42.8,18.5z"/>
				<polygon class="st1" points="42.9,15.4 43,15.4 43.3,15.1 43.1,15.1 				"/>
				<path class="st1" d="M43,17.5l0.4-0.3l1.2,0.4v-0.1l-0.4-1.5C43.4,16.1,43,16.8,43,17.5z"/>
				<polygon class="st1" points="43.3,19.6 44.3,19.7 44.5,19.5 44.4,19 43.4,18.8 43.4,18.9 				"/>
				<path class="st1" d="M44.1,16.3c0,0-0.1-0.1-0.2-0.1c-0.1,0.1-0.3,0.1-0.5,0.2h0.3h0.1L44.1,16.3z"/>
				<path class="st1" d="M43.8,10l0.3,0.4l-0.4,1.2h0.1l1.6-0.4C45.1,10.5,44.5,10.1,43.8,10z"/>
				<polygon class="st1" points="44.1,15.5 44.7,15.3 44.7,15.2 44.1,15.2 				"/>
				<polygon class="st1" points="44.4,14 44.8,14 44.8,13.8 44.1,13.8 				"/>
				<path class="st1" d="M44.2,8.6v0.1c0.2,0,0.5,0.3,0.8,0.9l0.1,0.1h0.1l0.1-0.1V9.6c-0.1-0.5-0.5-0.8-1-0.9L44.2,8.6z"/>
				<path class="st1" d="M45.8,15.1V14h-0.1l-0.5,0.6l0.1,0.1V15l-0.5,0.1v0.3l0.1-0.1l0.2,0.1h0.3l0.1-0.1h0.1l0.1,0.1
					C45.8,15.3,45.8,15.2,45.8,15.1z"/>
				<polygon class="st1" points="45.8,11.2 45.9,11.9 46.1,11.9 46.1,11.2 				"/>
				<polygon class="st1" points="45.9,10 45.9,10.2 46.2,10.4 46.2,10.3 				"/>
				<path class="st1" d="M46.1,13h1.2v-0.1l-0.5-0.5l-0.1,0.1h-0.3L46.2,12h-0.3l0.1,0.1l-0.1,0.1v0.3l0.1,0.1v0.1L45.9,13L46.1,13z
					"/>
				<polygon class="st1" points="47.2,11.6 47.2,12 47.5,12 47.5,11.3 				"/>
				<rect x="47.4" y="8.9" class="st1" width="0.6" height="0.3"/>
				<polygon class="st1" points="19.1,17.7 18.7,17.7 18.5,18.1 18.7,18.2 18.8,18.2 19.1,17.8 				"/>
				<path class="st1" d="M20,14.8h-0.4l-0.3,0.3v0.1l0.3,0.3c0-0.4,0.1-0.5,0.4-0.5V14.8z"/>
				<path class="st1" d="M22.2,17v-1c-0.2,0-0.3,0.4-0.5,1.3v0.1l0.3,0.3h0.4L22.2,17z"/>
				<path class="st1" d="M23.4,12.8l-0.9-0.4l-0.3,0.4l0.3,1h0.1C22.9,13.2,23.1,12.9,23.4,12.8L23.4,12.8z"/>
				<polygon class="st1" points="23,15.2 22.9,15.1 22.8,15.1 22.8,15.4 				"/>
				<path class="st1" d="M24.3,16.1l-0.7-0.3h-0.3c0.1,0.3,0.5,0.5,0.8,0.5l0.1-0.1V16.1z"/>
				<path class="st1" d="M23.7,12.8V13c0.1,0.4,0.3,0.5,0.4,0.5v-0.3L23.7,12.8z"/>
				<polygon class="st1" points="25,16.5 24.6,16.5 24.3,16.8 24.3,16.9 24.7,16.9 25,16.6 				"/>
				<rect x="24.6" y="13.9" class="st1" width="0.3" height="0.8"/>
				<polygon class="st1" points="28.2,20.6 27.8,20.6 27.8,20.9 27.9,20.9 				"/>
				<path class="st1" d="M29.5,20.6h-0.1c-0.3,0.2-0.6,0.3-0.9,0.3l0.1,0.1v0.1l-0.4,0.5h0.4l0.9-0.7V20.6z"/>
				<polygon class="st1" points="30.4,20 30.3,20 30.3,20.1 30.5,20.4 30.7,20.4 30.7,20.2 				"/>
				<polygon class="st1" points="31.3,24 31.1,24 30.5,24.5 30.5,24.7 30.7,24.7 30.7,24.4 30.8,24.4 31.3,24.8 				"/>
				<path class="st1" d="M33.2,22.7H32L31.6,23c0.1,0.5,0.3,0.8,0.4,0.8h0.1L32,23.1l0.4-0.3h0.1l0.7,0.1V22.7z"/>
			</g>
		</g>
	</g>
</g>
</svg>
